{
  "type": "service_account",
  "project_id": "aot-seleckt",
  "private_key_id": "b7381c4cb90c2c9c31ee6a3aa98e3ce1c8dfb420",
  "private_key": "-----BEGIN PRIVATE KEY-----\nMIIEvgIBADANBgkqhkiG9w0BAQEFAASCBKgwggSkAgEAAoIBAQC07bWFYSxhOQ7E\nXwMiBDDwHTsHBuaigWTFkq/w1Zu50K0Lzyd6f6vdJfx0/oKw0INmLnYY+naDsVXb\nhPKG17j5X9eNNVNO7qK7Tr8DECR7+pfzeY63xtQI189Np0zukit6wf6nt5l5cQQN\n/AxrnODUoUFIAvBGrmBi/4+iOOntMO3eSHUGvyP5KM/jiqbV1nWqx51AkhT4WnXL\nq/iBuYPhB1y2QOHZwt+feSRmwqNsf6MrVjVl2UGaiEFjXksM+IPuJaxeybw4g57Y\nukpZkX6T8Gn18hRJlIxAvw7i4h5HRs63I+Q0IGT/gPNpENUWyTtat8wNeZLHim3A\nPIu6srXDAgMBAAECggEADP3sxPEfYLPaLZus++pVIUjYDj8enJiyBcXswFx2XDdx\n1aFAcnlse+rYYAZOmCfA57t6W3zQudAoHCVFzQz8iVuqfMdRfh+Aq/aRnMSx+f0a\noC8gYm3yl9f3WNokmhUA7kWz5ZM3gBLveZmZwrh3JI2XxHYBjvHClhlH1RxFH/T+\nYIcNi6cpDRNkZoUGP13qIMDgQSXHF9LoLF2nRItU1lZK/NMcslbCXQIaNTuSnEck\nphPoci2Z1GObb5YqDZkH/vv9R0uFRfpDRYuKJ/GTjkakro/3TGRM9fH3FN88ayMB\nkmDvU4VVmWHpp0EYa0Y/enE71wDJovsMHeZSumtWcQKBgQDyCT+mEnzFZ+MyE6of\nBcD5Yiol74BU6trcG4fNXmh99f+AkZ0ztZRPkqgeJJFieGWbHoxVLQr+wCIqplQ1\n27sym5yD6uKhmR8Ql4eWwQqxfS2HS6RICnVWBVcrF/fDLIcP1ED05Oy7GwRPGCds\nt2xXvaMqETGjuUD68FpmxtJq1QKBgQC/Xe6xboJNzMKLUj9cKfEQ3UlPmrktFtrh\npIJoKZgZ9G9BC9QDJFH+DogsQ9YXEx9P5gbGGxn7zx1QHlNuhyFg/QWbmWTzl3nP\n3rE/wTs22Q/4d8lmLN2kbintpcxdzdxSH1mmEGPMxweFBxtBL3SsvgHnfnop0aZN\nObgdS+O6NwKBgBc53frA0WpcIsg+bNfXRIJp8iN7zTPY6bGvjqOdiKd1wNQEpTI+\nHYJZT3q9BZqOdSmij9LopKJ3q4+uMGyOrnMXzbg3BRJ+0CVWdTN5SN5pZcIS9yvW\nnRXpI0lGXodDMZ7KPoWBpln6KLqyVa4wF9x/nTW/OqU8dMjf4bz1HWIVAoGBAJ71\nQZ508xv45+ieiy7dT/b4OTs8hHDluS8RXZl0Y3m7xuY7EwMBGnJ0U7yhJKbKJYpS\nwnGwdWbrZaf1aMw4xwsvYYccZfTJcE+w5X7V3X/z0gZMSijrP7ikIYPb4uRQaaB1\nlhwRJTUmZiKkAomlB7+tnRtTvdoa4Y7oUP1U2ncFAoGBAMxDJf4EHLf0HtKqMS+c\neXnCXfrT74V+nvAF9lu+YVeyy0br9Y36fltJxgHg6o/iZsF2gPHHHPYNbQefg2tz\n+8uO4rxXzYCS4Pmdz5ZZvGSjNRiP++QCsYNsc2P9micjpeUdre706pAp/DP+MXiV\nxMabDQFLw1ztR2l9WyzL8+mS\n-----END PRIVATE KEY-----\n",
  "client_email": "firebase-adminsdk-tfmkw@aot-seleckt.iam.gserviceaccount.com",
  "client_id": "107345354071685811412",
  "auth_uri": "https://accounts.google.com/o/oauth2/auth",
  "token_uri": "https://oauth2.googleapis.com/token",
  "auth_provider_x509_cert_url": "https://www.googleapis.com/oauth2/v1/certs",
  "client_x509_cert_url": "https://www.googleapis.com/robot/v1/metadata/x509/firebase-adminsdk-tfmkw%40aot-seleckt.iam.gserviceaccount.com"
}
